…
See the [pkgdown
reference](https://rladies.github.io/meetupr/reference/index.html).

For example, the following code will get all upcoming events for the
[R-Ladies San Francisco](https://meetup.com/rladies-san-francisco)
meetup.

``` r
library(meetupr)

urlname <- "rladies-san-francisco"
events <- get_events(urlname)
dplyr::arrange(events, desc(time))
#> # A tibble: 63 × 18
#>    id        title    link  status durat…¹ going waiting descr…² venue…³ venue…⁴
#>    <chr>     <chr>    <chr> <chr>  <chr>   <int>   <int> <chr>   <chr>     <dbl>
#>  1 280404371 Data St… http… PAST   PT1H30M    61       0 "=====… 269060…   -8.52
#>  2 277757076 Buildin… http… PAST   PT2H       70       0 "Build… 269060…   -8.52
#>  3 273036282 A conve… http… PAST   PT2H       30       0 "Fires… 269060…   -8.52
#>  4 272407729 Tangibl… http… PAST   PT1H30M    45       0 "Tangi… 269060…   -8.52
#>  5 267967077 R-Ladie… http… PAST   PT2H       95       0 "Just … 260586…   37.8 
#>  6 266395328 Decembe… http… PAST   PT2H30M    98       0 "Join … 261907…   37.8 
#>  7 265100301 Worksho… http… PAST   PT2H       40       0 "\"Tra… 266458…   37.8 
#>  8 263230714 August … http… PAST   PT2H       58       0 "1. Bu… 265200…   37.6 
#>  9 262717409 R-Ladie… http… PAST   PT3H       18       0 "Come … 260979…   37.8 
#> 10 262662040 Bayesia… http… PAST   PT2H       57       0 "MAIN … 260597…   37.8 
#> # … with 53 more rows, 8 more variables: venue_lon <dbl>, venue_name <chr>,
#> #   venue_address <chr>, venue_city <chr>, venue_state <chr>, venue_zip <chr>,
#> #   venue_country <chr>, time <dttm>, and abbreviated variable names ¹​duration,
#> #   ²​description, ³​venue_id, ⁴​venue_lat
#> # ℹ Use `print(n = ...)` to see more rows, and `colnames()` to see all variable names
```

We can also search for groups with free text.

``` r
groups <- find_groups("R-Ladies")
dplyr::arrange(groups, desc(created))
#> # A tibble: 189 × 17
#>    id       name             urlname latit…¹ longi…² city  state membe…³ members
#>    <chr>    <chr>            <chr>     <dbl>   <dbl> <chr> <chr> <chr>     <int>
#>  1 36221103 R-Ladies Honolu… rladie…    21.3 -158.   Hono… "HI"  LEADER       11
#>  2 36221061 R-Ladies Rabat   rladie…    34.0   -6.83 Rabat ""    LEADER      145
#>  3 36155475 R-Ladies Morelia rladie…    19.7 -101.   More… ""    LEADER       97
#>  4 36155463 R-Ladies Ciudad… rladie…    27.5 -110.   Ciud… ""    LEADER        2
#>  5 36128420 R-Ladies Rome    rladie…    41.9   12.5  Roma  "RM"  LEADER       25
#>  6 36128390 R-Ladies Oxford… rladie…    34.4  -89.5  Oxfo… "MS"  LEADER        3
#>  7 35897820 R-Ladies Gaboro… rladie…   -24.6   25.9  Gabo… ""    LEADER      490
#>  8 35897809 R-Ladies Cologne rladie…    50.9    6.96 Colo… ""    LEADER      178
#>  9 35897790 R-Ladies West L… rladie…    40.5  -87.0  West… "IN"  LEADER        9
#> 10 35897779 R-Ladies Villah… rladie…    18.0  -92.9  Vill… ""    LEADER      116
#> # … with 179 more rows, 8 more variables: created <dttm>, timezone <chr>,
#> #   join_mode <chr>, who <chr>, isPrivate <lgl>, category_id <chr>,
#> #   category_name <chr>, country <chr>, and abbreviated variable names
#> #   ¹​latitude, ²​longitude, ³​membershipMetadata.status
#> # ℹ Use `print(n = ...)` to see more rows, and `colnames()` to see all variable names
```
…
