Get the members from a meetup group — get_group_members • meetupr
…
...
Should be empty. Used for parameter expansion

    Value

    A tibble with group members

    Examples

get_group_members("rladies-lagos")
#> Warning: Selecting ‘env’ backend. Secrets are stored in environment variables
#> Warning: Selecting ‘env’ backend. Secrets are stored in environment variables
#> # A tibble: 866 × 4
#>    id        name                       member_url              member_photo_url
#>    <chr>     <chr>                      <chr>                   <chr>           
#>  1 251470805 "R-Ladies Global"          https://www.meetup.com… https://secure-…
#>  2 225839690 "EYITAYO ALIMI"            https://www.meetup.com… https://secure-…
#>  3 236466773 "Adedamilola Adekanye"     https://www.meetup.com… https://secure-…
#>  4 255806325 "Helen"                    https://www.meetup.com… https://secure-…
#>  5 287781170 "Alvin"                    https://www.meetup.com… https://secure-…
#>  6 266271010 "ijeoma benson"            https://www.meetup.com… NA              
#>  7 284993544 "Ochuko"                   https://www.meetup.com… https://secure-…
#>  8 249638660 "Folajimi Aroloye"         https://www.meetup.com… https://secure-…
#>  9 287607204 "Olaniyi ayomide recheal " https://www.meetup.com… NA              
#> 10 253986501 "Ofure Ughu"               https://www.meetup.com… NA              
#> # ℹ 856 more rows
…
