Meetup API Schema Introspection • meetupr
…
This shows field names, descriptions, argument counts, and return
types. For example, you might see fields like event,
group, self, etc.

Finding Specific Types

Search for types related to your interests:

event_types <- search_types(schema, pattern = "event")
event_types
#> # A tibble: 72 × 4
#>    type_name                  kind         description               field_count
#>    <chr>                      <chr>        <chr>                           <int>
#>  1 AnnounceEventInput         INPUT_OBJECT ""                                  0
#>  2 AnnounceEventPayload       OBJECT       ""                                  2
#>  3 CloseEventRsvpsInput       INPUT_OBJECT ""                                  0
#>  4 CloseEventRsvpsPayload     OBJECT       ""                                  2
#>  5 CommunicationSettingsInput INPUT_OBJECT "Event communication too…           0
#>  6 CreateEventInput           INPUT_OBJECT ""                                  0
#>  7 CreateEventPayload         OBJECT       ""                                  2
#>  8 DeleteEventInput           INPUT_OBJECT ""                                  0
#>  9 DeleteEventPayload         OBJECT       ""                                  2
#> 10 EditEventInput             INPUT_OBJECT ""                                  0
#> # ℹ 62 more rows
user_types <- search_types(schema, pattern = "user")
user_types
#> # A tibble: 2 × 4
#>   type_name          kind         description                        field_count
#>   <chr>              <chr>        <chr>                                    <int>
#> 1 MembershipDues     OBJECT       "The last known state of member's…           5
#> 2 NetworkUsersFilter INPUT_OBJECT ""                                           0

Examining Type Fields

Once you find a relevant type, examine its available fields:

event_fields <- get_type_fields(schema, "Event")
event_fields
#> # A tibble: 69 × 2
#>    type_name              kind        
#>    <chr>                  <chr>       
#>  1 AnnounceEventInput     INPUT_OBJECT
#>  2 AnnounceEventPayload   OBJECT      
#>  3 CloseEventRsvpsInput   INPUT_OBJECT
#>  4 CloseEventRsvpsPayload OBJECT      
#>  5 CreateEventInput       INPUT_OBJECT
#>  6 CreateEventPayload     OBJECT      
#>  7 DeleteEventInput       INPUT_OBJECT
#>  8 DeleteEventPayload     OBJECT      
#>  9 EditEventInput         INPUT_OBJECT
#> 10 EditEventPayload       OBJECT      
#> # ℹ 59 more rows

group_fields <- get_type_fields(schema, "Group")
group_fields
#> # A tibble: 56 × 2
#>    type_name                kind        
#>    <chr>                    <chr>       
#>  1 AddGroupToNetworkInput   INPUT_OBJECT
#>  2 AddGroupToNetworkPayload OBJECT      
#>  3 CreateGroupDraftInput    INPUT_OBJECT
#>  4 CreateGroupDraftPayload  OBJECT      
#>  5 DeleteGroupDraftInput    INPUT_OBJECT
#>  6 Group                    OBJECT      
#>  7 GroupAnalytics           OBJECT      
#>  8 GroupDuesReasons         OBJECT      
#>  9 GroupEventConnection     OBJECT      
#> 10 GroupEventFilter         INPUT_OBJECT
#> # ℹ 46 more rows
…
