Setting up and Getting Started with meetupr • meetupr
…
#>         }
#>       }
#>     }
#>   }
#> }",
#>   "variables": {
#>     "query": "R programming",
#>     "first": 200
#>   }
#> }
#> Warning in default_backend_auto(): Selecting 'env' backend. Secrets are stored
#> in environment variables
#> Warning in default_backend_auto(): Selecting 'env' backend. Secrets are stored
#> in environment variables
#> # A tibble: 200 × 14
#>    id       name     urlname city  state country   lat     lon memberships_count
#>    <chr>    <chr>    <chr>   <chr> <chr> <chr>   <dbl>   <dbl>             <int>
#>  1 38207702 Birming… bham-r… Birm… "AL"  us       33.5  -86.8                  2
#>  2 24890872 Warwick… warwic… Cove… "43"  gb       52.4   -1.56               918
#>  3 18574545 Johanne… joburg… Joha… ""    za      -26.2   28.0               1549
#>  4 2906882  Birming… Birmin… Birm… "43"  gb       52.5   -1.9                810
#>  5 23174619 R-Ladie… rladie… Sant… ""    ar      -36.6  -64.3                185
#>  6 21760043 R-Ladie… rladie… Buen… ""    ar      -34.6  -58.4               1960
#>  7 26517118 Salt La… slc-rug Salt… "UT"  us       40.8 -112.                3041
#>  8 20443056 R-Ladie… rladie… Paris ""    fr       48.9    2.34              1142
#>  9 37281989 Cape To… cape-t… Cape… ""    za      -33.9   18.5                108
#> 10 17428672 R Users… spotka… Wars… ""    pl       52.3   21.0               2976
#> # ℹ 190 more rows
#> # ℹ 5 more variables: founded_date <dttm>, timezone <chr>, join_mode <chr>,
#> #   is_private <lgl>, membership_status <chr>
…
#> ℹ API endpoint: <https://api.meetup.com/gql-ext>
#> 
#> ── API Connectivity Test ──
#> 
#> Warning in default_backend_auto(): Selecting 'env' backend. Secrets are stored
#> in environment variables
#> Warning in default_backend_auto(): Selecting 'env' backend. Secrets are stored
#> in environment variables
#> ✖ API Connection: Failed - Failed to find matching request in active cassette, "meetupr-debug-off".
find_groups("R programming")
#> Warning in default_backend_auto(): Selecting 'env' backend. Secrets are stored
#> in environment variables
#> Warning in default_backend_auto(): Selecting 'env' backend. Secrets are stored
#> in environment variables
#> # A tibble: 200 × 14
#>    id       name     urlname city  state country   lat     lon memberships_count
#>    <chr>    <chr>    <chr>   <chr> <chr> <chr>   <dbl>   <dbl>             <int>
#>  1 38207702 Birming… bham-r… Birm… "AL"  us       33.5  -86.8                  2
#>  2 24890872 Warwick… warwic… Cove… "43"  gb       52.4   -1.56               918
#>  3 18574545 Johanne… joburg… Joha… ""    za      -26.2   28.0               1549
#>  4 2906882  Birming… Birmin… Birm… "43"  gb       52.5   -1.9                810
#>  5 23174619 R-Ladie… rladie… Sant… ""    ar      -36.6  -64.3                185
#>  6 21760043 R-Ladie… rladie… Buen… ""    ar      -34.6  -58.4               1960
#>  7 26517118 Salt La… slc-rug Salt… "UT"  us       40.8 -112.                3041
#>  8 20443056 R-Ladie… rladie… Paris ""    fr       48.9    2.34              1142
#>  9 37281989 Cape To… cape-t… Cape… ""    za      -33.9   18.5                108
#> 10 17428672 R Users… spotka… Wars… ""    pl       52.3   21.0               2976
#> # ℹ 190 more rows
#> # ℹ 5 more variables: founded_date <dttm>, timezone <chr>, join_mode <chr>,
#> #   is_private <lgl>, membership_status <chr>
…
